Clustering
…
# A tibble: 27 × 2
   country  `Ecological model`
   <chr>    <chr>             
 1 Austria  1                 
 2 Belgium  1                 
 3 Bulgaria 2                 
 4 Cyprus   3                 
 5 Czechia  2                 
 6 Germany  1                 
 7 Denmark  1                 
 8 Estonia  3                 
 9 Spain    2                 
10 Finland  1                 
# ℹ 17 more rows
…
